<?xml version="1.0" standalone="no"?>
<!DOCTYPE svg PUBLIC "-//W3C//DTD SVG 20010904//EN"
 "http://www.w3.org/TR/2001/REC-SVG-20010904/DTD/svg10.dtd">
<svg version="1.0" xmlns="http://www.w3.org/2000/svg"
 width="7234.000000pt" height="1265.000000pt" viewBox="0 0 7234.000000 1265.000000"
 preserveAspectRatio="xMidYMid meet">
<metadata>
Created by potrace 1.13, written by Peter Selinger 2001-2015
</metadata>
<g transform="translate(0.000000,1265.000000) scale(0.100000,-0.100000)"
fill="#000000" stroke="none">
<path d="M1702 12618 c-2 -29 -6 -38 -19 -38 -34 0 -282 -89 -386 -138 -58
-28 -108 -47 -111 -44 -3 3 -6 1 -6 -5 0 -11 -180 -119 -192 -115 -5 1 -8 -2
-8 -7 0 -6 -43 -42 -95 -82 -421 -317 -724 -801 -830 -1322 -14 -69 -25 -136
-25 -150 0 -19 -4 -25 -15 -21 -8 4 -15 1 -15 -5 0 -6 3 -11 8 -11 11 0 9
-6474 -3 -6482 -6 -5 -3 -8 6 -8 13 0 18 -15 24 -67 18 -170 101 -436 200
-638 213 -438 560 -791 995 -1012 80 -41 150 -77 155 -81 6 -4 17 -8 25 -9 8
-1 59 -17 112 -35 l98 -33 2 -55 2 -55 3 53 c3 40 8 52 18 49 7 -3 40 -11 74
-18 61 -12 61 -12 63 -48 l1 -36 4 34 c4 31 6 33 35 27 17 -3 39 -6 49 -6 14
0 19 -8 20 -27 2 -26 2 -26 6 -4 4 22 8 23 50 17 25 -3 61 -6 79 -6 24 0 34
-5 34 -15 0 -8 7 -15 15 -15 8 0 15 5 15 10 0 7 1860 10 5560 10 3700 0 5560
-3 5560 -10 0 -5 9 -10 21 -10 11 0 18 4 14 9 -8 14 3 18 83 25 68 7 72 6 72
-13 0 -12 5 -21 10 -21 6 0 10 11 10 25 0 15 6 25 14 25 7 0 28 3 45 6 29 6
31 5 31 -25 0 -17 5 -31 11 -31 6 0 9 14 7 32 -3 28 1 33 27 40 17 4 36 6 43
3 6 -2 12 0 12 5 0 6 6 10 13 10 7 0 60 15 117 33 575 184 1058 601 1328 1148
132 269 215 602 225 904 l2 70 564 3 c445 2 566 0 573 -10 5 -8 8 -3 8 15 l0
27 -575 0 -575 0 0 3048 c0 2030 -4 3077 -10 3137 -59 514 -299 994 -677 1356
-108 103 -267 226 -375 291 -38 22 -68 45 -68 51 0 6 -3 8 -6 4 -3 -3 -49 16
-102 41 -54 26 -118 56 -144 67 -27 10 -48 22 -48 26 0 4 -6 6 -12 5 -7 0 -48
10 -90 23 l-78 24 -2 46 -1 46 -4 -44 c-4 -39 -6 -42 -26 -37 -12 4 -46 12
-74 18 -47 9 -53 14 -54 37 -2 25 -2 25 -6 2 -4 -21 -9 -23 -41 -17 -21 3 -43
6 -49 6 -7 0 -13 7 -13 15 0 17 -17 20 -22 4 -3 -8 -31 -8 -100 0 -133 15
-11144 15 -11273 1 -62 -8 -91 -8 -93 0 -6 16 -32 12 -32 -5 0 -8 -6 -15 -14
-15 -7 0 -28 -3 -45 -6 -27 -6 -31 -4 -31 15 0 11 -4 21 -10 21 -5 0 -10 -11
-10 -25 0 -14 -6 -25 -12 -25 -7 0 -23 -3 -35 -6 -19 -5 -22 -1 -26 28 l-4 33
-1 -37z m416 -425 c-10 -2 -26 -2 -35 0 -10 3 -2 5 17 5 19 0 27 -2 18 -5z
m11110 0 c-10 -2 -26 -2 -35 0 -10 3 -2 5 17 5 19 0 27 -2 18 -5z m-11215 -10
c-7 -2 -19 -2 -25 0 -7 3 -2 5 12 5 14 0 19 -2 13 -5z m11300 0 c-7 -2 -19 -2
-25 0 -7 3 -2 5 12 5 14 0 19 -2 13 -5z m64 -9 c-3 -3 -12 -4 -19 -1 -8 3 -5
6 6 6 11 1 17 -2 13 -5z m899 -446 l29 -33 -32 29 c-18 17 -33 31 -33 33 0 8
8 1 36 -29z m-12073 -15 c-13 -2 -35 -2 -50 0 -16 2 -5 4 22 4 28 0 40 -2 28
-4z m10914 1 c-3 -3 -12 -4 -19 -1 -8 3 -5 6 6 6 11 1 17 -2 13 -5z m56 -1
c-7 -2 -19 -2 -25 0 -7 3 -2 5 12 5 14 0 19 -2 13 -5z m-11100 -10 c-7 -2 -19
-2 -25 0 -7 3 -2 5 12 5 14 0 19 -2 13 -5z m11184 1 c-3 -3 -12 -4 -19 -1 -8
3 -5 6 6 6 11 1 17 -2 13 -5z m-11250 -10 c-3 -3 -12 -4 -19 -1 -8 3 -5 6 6 6
11 1 17 -2 13 -5z m-1017 -8 c0 -2 -8 -10 -17 -17 -16 -13 -17 -12 -4 4 13 16
21 21 21 13z m967 -2 c-3 -3 -12 -4 -19 -1 -8 3 -5 6 6 6 11 1 17 -2 13 -5z
m-487 -218 c0 -2 -8 -10 -17 -17 -16 -13 -17 -12 -4 4 13 16 21 21 21 13z
m12506 -118 l29 -33 -32 29 c-18 17 -33 31 -33 33 0 8 8 1 36 -29z m-12706
-72 c0 -2 -8 -10 -17 -17 -16 -13 -17 -12 -4 4 13 16 21 21 21 13z m-40 -50
c0 -2 -8 -10 -17 -17 -16 -13 -17 -12 -4 4 13 16 21 21 21 13z m10472 -168
c73 -56 88 -152 34 -222 -42 -55 -82 -64 -326 -70 -820 -22 -1903 -194 -2935
-466 -1421 -375 -2953 -1019 -3920 -1648 -847 -551 -1299 -1077 -1436 -1672
-15 -62 -22 -145 -28 -310 -4 -124 -6 -227 -4 -229 1 -2 28 13 59 35 58 39
174 147 514 479 420 411 662 621 905 790 411 284 1100 570 1990 825 828 237
1779 424 2418 476 212 17 480 7 572 -20 111 -34 166 -89 181 -183 13 -85 -67
-194 -228 -312 -37 -27 -157 -104 -265 -172 -313 -194 -528 -339 -603 -407
l-25 -23 45 6 c365 51 991 219 1605 432 72 24 155 53 185 63 390 129 786 300
1065 460 336 194 669 453 959 745 276 278 473 528 683 870 64 104 221 98 273
-10 39 -80 24 -123 -117 -335 -172 -259 -341 -467 -578 -709 -409 -419 -832
-729 -1334 -981 -275 -137 -569 -250 -1156 -445 -855 -284 -1458 -425 -1762
-412 -97 4 -119 8 -176 34 -88 42 -120 85 -125 169 -4 55 0 72 28 131 39 85
164 210 331 331 136 100 460 308 614 395 l110 62 -85 3 c-193 7 -694 -59
-1200 -157 -1106 -214 -2175 -543 -2825 -868 -257 -129 -384 -209 -591 -374
-213 -170 -305 -254 -739 -675 -393 -381 -491 -464 -604 -513 -103 -44 -216
-37 -288 17 -114 85 -172 359 -144 676 64 717 561 1376 1526 2026 443 298
1087 636 1794 942 1699 734 3523 1177 5236 1272 33 2 121 3 196 2 131 -1 137
-2 171 -28z m3125 -380 c-3 -8 -6 -5 -6 6 -1 11 2 17 5 13 3 -3 4 -12 1 -19z
m-14350 -30 c-3 -7 -5 -2 -5 12 0 14 2 19 5 13 2 -7 2 -19 0 -25z m490 10 c-3
-8 -6 -5 -6 6 -1 11 2 17 5 13 3 -3 4 -12 1 -19z m-10 -60 c-3 -8 -6 -5 -6 6
-1 11 2 17 5 13 3 -3 4 -12 1 -19z m13880 -10 c-3 -7 -5 -2 -5 12 0 14 2 19 5
13 2 -7 2 -19 0 -25z m-14370 -35 c-3 -10 -5 -4 -5 12 0 17 2 24 5 18 2 -7 2
-21 0 -30z m13890 -20 c-3 -10 -5 -4 -5 12 0 17 2 24 5 18 2 -7 2 -21 0 -30z
m-13410 -90 c-2 -21 -4 -6 -4 32 0 39 2 55 4 38 2 -18 2 -50 0 -70z m13900
-4535 c-1 -843 -2 -154 -2 1532 0 1686 1 2375 2 1533 2 -843 2 -2223 0 -3065z
m-2563 2691 c46 -13 120 -79 147 -130 75 -148 95 -490 44 -758 -44 -230 -154
-494 -297 -711 -401 -615 -1173 -1205 -2293 -1755 -1876 -921 -4000 -1494
-5911 -1596 -273 -14 -353 -11 -391 17 -98 73 -98 195 0 268 26 19 47 22 244
28 251 8 444 21 708 48 1739 180 3572 715 5210 1521 1062 522 1782 1064 2152
1618 131 196 233 438 268 636 14 76 37 491 28 504 -5 7 -50 -20 -100 -61 -68
-57 -168 -151 -403 -382 -760 -747 -1062 -969 -1685 -1238 -547 -237 -1272
-466 -2015 -637 -532 -123 -1128 -229 -1550 -276 -236 -26 -589 -21 -703 9
-153 42 -225 162 -167 281 49 101 159 190 480 390 319 199 523 337 615 417 22
20 -260 -30 -505 -88 -465 -112 -1350 -397 -1820 -586 -640 -259 -1228 -676
-1704 -1209 -193 -216 -329 -400 -511 -690 -30 -48 -79 -71 -141 -66 -94 7
-151 74 -142 168 5 50 54 140 156 289 537 780 1285 1400 2127 1762 448 193
1430 513 1965 641 501 120 760 138 912 61 155 -78 141 -259 -32 -433 -145
-146 -489 -385 -857 -596 -46 -26 -83 -49 -83 -52 0 -12 314 8 505 32 1205
153 2700 560 3540 964 464 223 713 417 1395 1085 275 270 341 331 435 402 156
119 265 155 379 123z m-11337 -4231 c-2 -18 -4 -4 -4 32 0 36 2 50 4 33 2 -18
2 -48 0 -65z m13410 -45 c-3 -10 -5 -4 -5 12 0 17 2 24 5 18 2 -7 2 -21 0 -30z
m-13890 -20 c-3 -10 -5 -2 -5 17 0 19 2 27 5 18 2 -10 2 -26 0 -35z m14370
-35 c-3 -7 -5 -2 -5 12 0 14 2 19 5 13 2 -7 2 -19 0 -25z m-13880 0 c-3 -8 -6
-5 -6 6 -1 11 2 17 5 13 3 -3 4 -12 1 -19z m-480 -60 c-3 -7 -5 -2 -5 12 0 14
2 19 5 13 2 -7 2 -19 0 -25z m14350 -20 c-3 -8 -6 -5 -6 6 -1 11 2 17 5 13 3
-3 4 -12 1 -19z m-14340 -40 c-3 -8 -6 -5 -6 6 -1 11 2 17 5 13 3 -3 4 -12 1
-19z m621 -323 c-3 -3 -9 2 -12 12 -6 14 -5 15 5 6 7 -7 10 -15 7 -18z m12912
-249 c0 -2 -8 -10 -17 -17 -16 -13 -17 -12 -4 4 13 16 21 21 21 13z m-40 -39
c0 -2 -10 -12 -22 -23 l-23 -19 19 23 c18 21 26 27 26 19z m-13139 -174 c13
-16 12 -17 -3 -4 -10 7 -18 15 -18 17 0 8 8 3 21 -13z m13559 -87 c0 -2 -8
-10 -17 -17 -16 -13 -17 -12 -4 4 13 16 21 21 21 13z m-13460 -31 c13 -14 21
-25 18 -25 -2 0 -15 11 -28 25 -13 14 -21 25 -18 25 2 0 15 -11 28 -25z m90
-90 c13 -14 21 -25 18 -25 -2 0 -15 11 -28 25 -13 14 -21 25 -18 25 2 0 15
-11 28 -25z m1027 19 c-3 -3 -12 -4 -19 -1 -8 3 -5 6 6 6 11 1 17 -2 13 -5z
m11210 0 c-3 -3 -12 -4 -19 -1 -8 3 -5 6 6 6 11 1 17 -2 13 -5z m-11114 -11
c-7 -2 -21 -2 -30 0 -10 3 -4 5 12 5 17 0 24 -2 18 -5z m11035 0 c-10 -2 -26
-2 -35 0 -10 3 -2 5 17 5 19 0 27 -2 18 -5z m1102 4 c0 -2 -15 -16 -32 -33
l-33 -29 29 33 c28 30 36 37 36 29z m-13189 -74 c13 -16 12 -17 -3 -4 -10 7
-18 15 -18 17 0 8 8 3 21 -13z m12286 -389 c-3 -3 -12 -4 -19 -1 -8 3 -5 6 6
6 11 1 17 -2 13 -5z m-11380 -10 c-3 -3 -12 -4 -19 -1 -8 3 -5 6 6 6 11 1 17
-2 13 -5z m11310 0 c-3 -3 -12 -4 -19 -1 -8 3 -5 6 6 6 11 1 17 -2 13 -5z
m-11219 -11 c-10 -2 -26 -2 -35 0 -10 3 -2 5 17 5 19 0 27 -2 18 -5z m11140 0
c-10 -2 -26 -2 -35 0 -10 3 -2 5 17 5 19 0 27 -2 18 -5z"/>
<path d="M39040 9388 c0 -10 -174 -12 -844 -9 l-844 3 -15 -28 c-8 -16 -126
-279 -261 -584 -136 -305 -256 -575 -267 -600 -19 -41 -545 -1222 -681 -1530
-33 -74 -102 -229 -154 -345 -51 -115 -165 -371 -252 -568 l-159 -357 595 2
595 3 333 750 c183 413 337 757 342 765 7 12 12 6 21 -25 6 -22 109 -367 228
-767 l218 -728 682 0 682 0 -26 58 c-14 31 -78 183 -143 337 -111 265 -329
780 -445 1055 -30 69 -50 128 -47 131 4 4 28 10 55 13 l47 7 0 -34 c0 -19 6
-39 13 -45 9 -8 11 0 9 39 -3 42 -1 49 15 49 10 0 28 3 41 6 21 6 22 4 22 -69
0 -42 5 -79 10 -82 6 -4 10 25 10 78 l0 85 34 6 c91 17 311 98 429 157 288
145 528 350 686 585 107 160 217 430 237 583 l7 51 221 2 221 2 -215 6 -215 5
-3 58 -3 58 230 -3 c237 -3 241 -3 241 35 0 9 -60 11 -233 9 l-234 -3 -6 78
c-15 197 -122 378 -302 511 -65 48 -219 125 -272 137 -18 3 -33 10 -33 15 0 4
-6 7 -12 6 -7 0 -43 6 -80 13 l-68 15 0 38 c0 21 -4 38 -10 38 -5 0 -10 -16
-10 -36 l0 -37 -37 7 c-21 3 -46 6 -55 6 -13 0 -18 8 -18 30 0 17 -4 30 -10
30 -5 0 -10 -12 -10 -26 0 -27 0 -27 -61 -20 -34 3 -82 6 -105 6 -37 0 -44 3
-44 20 0 15 -7 20 -25 20 -14 0 -25 -6 -25 -12z m-572 -785 l112 -6 0 -209 c0
-137 3 -207 10 -203 6 4 10 83 10 206 0 222 -6 206 73 193 l38 -7 -3 -152 c-2
-84 0 -151 5 -148 4 2 7 70 7 150 l0 145 28 -6 c43 -10 82 -28 82 -37 0 -5 6
-6 13 -4 24 10 111 -68 140 -126 24 -48 29 -68 29 -137 0 -206 -117 -427 -295
-556 -51 -37 -201 -107 -235 -109 -15 -1 -29 -5 -32 -9 -4 -4 -20 -11 -38 -14
l-32 -6 0 221 c0 146 -3 220 -10 216 -6 -4 -10 -90 -10 -226 0 -178 -3 -219
-14 -219 -7 0 -34 -3 -60 -6 l-46 -7 0 177 c0 159 -7 205 -24 160 -3 -9 -6
-90 -6 -180 l0 -164 -245 0 c-135 0 -245 4 -245 8 0 5 25 64 56 133 81 180
384 858 400 897 l14 32 83 0 c45 0 133 -3 195 -7z"/>
<path d="M39533 9360 c0 -25 2 -35 4 -22 2 12 2 32 0 45 -2 12 -4 2 -4 -23z"/>
<path d="M45240 9381 c0 -5 -325 -6 -753 -3 l-753 5 -78 -179 c-73 -166 -294
-662 -671 -1514 -84 -190 -223 -505 -310 -700 -86 -195 -174 -393 -195 -440
-79 -175 -520 -1172 -520 -1176 0 -2 351 -4 780 -4 513 0 780 -3 780 -10 0
-15 71 -12 84 4 8 10 57 15 199 20 184 7 187 6 187 -14 0 -13 7 -20 20 -20 15
0 20 7 20 25 0 22 4 25 38 25 20 0 67 3 105 7 l67 6 0 -32 c0 -21 5 -31 15
-31 10 0 15 10 15 29 0 17 3 32 8 34 4 3 37 8 75 12 l67 7 0 -41 c0 -22 5 -41
10 -41 6 0 10 20 10 45 0 36 3 45 18 45 9 0 34 3 55 6 l37 7 0 -52 c0 -28 5
-51 10 -51 6 0 10 24 10 54 0 52 1 54 31 60 17 3 35 6 40 6 5 0 9 -27 9 -60 0
-33 4 -60 10 -60 6 0 10 28 10 65 0 45 4 65 13 65 6 0 22 3 34 6 21 6 22 3 26
-67 l3 -74 2 78 c2 82 -1 78 60 81 9 1 19 4 22 8 3 3 19 8 35 10 l30 3 6 -90
5 -90 2 98 c2 100 1 98 45 101 6 1 14 4 17 8 3 4 17 9 30 10 14 2 27 5 30 9 3
3 46 20 95 38 88 33 310 137 390 183 137 80 180 107 320 207 229 162 482 419
646 656 213 309 392 766 440 1127 l13 93 304 -3 c202 -2 309 1 316 8 7 7 -85
10 -300 10 l-311 0 0 185 0 185 388 0 c214 0 389 3 389 8 0 4 -177 6 -393 4
l-393 -2 -12 78 c-48 308 -239 601 -496 760 -32 21 -67 45 -76 54 -10 9 -20
14 -23 12 -2 -3 -20 4 -38 14 -19 11 -55 28 -81 37 -27 10 -48 22 -48 27 0 5
-4 7 -9 4 -8 -6 -122 23 -131 33 -3 3 -13 6 -22 7 -71 3 -68 1 -70 52 l-1 47
-4 -44 -4 -43 -37 6 c-20 3 -45 6 -54 6 -14 0 -18 8 -18 35 0 19 -4 35 -10 35
-5 0 -10 -14 -10 -31 l0 -32 -46 7 c-26 3 -60 6 -75 6 -24 0 -29 4 -29 25 0
16 -6 25 -15 25 -8 0 -15 -9 -15 -20 0 -20 -4 -20 -152 -14 -112 5 -156 10
-164 20 -12 15 -54 19 -54 5z m-320 -1221 c0 -306 2 -344 18 -373 16 -31 17
-21 20 336 l2 367 23 0 c12 0 46 -3 75 -6 l52 -7 0 -304 c0 -200 3 -302 10
-298 6 4 10 115 10 301 0 273 1 294 18 294 9 0 60 -11 112 -25 230 -62 365
-172 432 -351 19 -52 22 -79 22 -228 1 -123 -2 -170 -11 -173 -7 -3 -10 -10
-7 -18 18 -45 -85 -360 -176 -542 -174 -346 -440 -591 -800 -737 -35 -14 -65
-26 -67 -26 -1 0 -4 161 -6 358 l-2 357 -3 -361 -2 -361 -72 -21 c-99 -29
-189 -52 -205 -52 -10 0 -13 59 -16 268 l-2 267 -3 -271 -2 -271 -37 -7 c-79
-13 -73 -32 -73 219 0 143 -4 225 -10 225 -6 0 -10 -83 -10 -229 l0 -228 -61
-7 c-34 -3 -75 -6 -90 -6 l-29 0 0 160 c0 88 -4 160 -8 160 -5 0 -16 -8 -25
-18 -13 -14 -17 -46 -19 -162 l-3 -145 -138 -3 -139 -3 4 54 c3 54 3 54 -19
39 -16 -10 -23 -24 -23 -48 l0 -34 -55 0 c-30 0 -55 3 -55 6 0 3 12 31 26 62
15 31 55 122 89 202 35 80 116 264 180 410 156 355 311 707 405 920 42 96 123
282 181 412 l104 238 193 0 192 0 0 -340z"/>
<path d="M44584 6695 c0 -187 2 -262 3 -167 2 95 2 248 0 340 -1 92 -3 14 -3
-173z"/>
<path d="M20406 9372 c-2 -4 -49 -109 -104 -232 -55 -124 -184 -414 -287 -645
-103 -231 -288 -645 -410 -920 -376 -844 -467 -1029 -589 -1195 -69 -94 -147
-157 -238 -192 -84 -31 -78 -46 -78 211 0 127 -3 232 -7 234 -5 3 -7 -102 -5
-234 l3 -239 -81 0 -80 0 -2 398 -3 397 -2 -392 c-2 -245 -7 -393 -13 -393 -5
0 -28 7 -50 16 l-40 16 -2 117 -2 116 -3 -113 -4 -113 -42 30 c-41 28 -110 97
-155 155 l-23 30 -52 -50 c-70 -67 -185 -176 -407 -385 -102 -95 -216 -204
-254 -240 l-70 -67 42 -55 c23 -30 69 -79 103 -109 35 -29 73 -63 86 -75 13
-13 26 -22 28 -22 3 0 46 -20 95 -45 50 -25 115 -53 145 -62 l55 -18 2 -200 3
-201 2 199 3 198 23 -6 c12 -3 28 -6 35 -6 10 0 12 -41 10 -195 -2 -107 0
-195 5 -195 4 0 7 86 7 191 l0 191 23 -6 c12 -3 30 -6 40 -6 16 0 17 -16 17
-195 l0 -195 -25 0 -25 0 0 -190 0 -190 -200 0 -200 0 -3 233 -2 232 -3 -232
-2 -233 -25 0 -25 0 -2 238 -2 237 -6 -255 -6 -255 -57 -160 c-32 -88 -71
-196 -87 -240 -16 -44 -65 -181 -109 -305 -116 -330 -248 -702 -256 -723 -7
-16 4 -17 170 -15 l178 3 42 120 c23 66 65 188 95 270 29 83 57 162 62 178
l10 27 304 0 304 0 0 -270 c0 -148 2 -270 5 -270 3 0 13 5 23 11 16 10 17 33
14 275 l-3 264 29 0 c16 0 44 3 61 6 l31 7 0 -219 c0 -153 3 -215 11 -207 7 7
9 82 7 220 l-3 210 50 12 c28 6 57 12 65 14 8 1 20 6 25 10 6 4 38 26 72 48
169 109 263 268 250 424 -9 120 -83 222 -199 277 -27 13 -48 25 -48 28 0 3
-14 6 -32 7 -17 1 -34 6 -37 10 -3 5 -18 8 -33 9 -16 0 -64 1 -108 2 l-81 2 3
185 c3 169 1 186 -14 191 -16 5 -18 23 -18 190 l0 184 170 0 170 0 0 -195 c0
-167 2 -195 15 -195 13 0 15 29 15 200 l0 200 24 0 c13 0 44 3 70 6 l46 7 0
-226 c0 -124 3 -228 8 -230 4 -3 6 100 4 229 l-3 234 23 0 c13 0 33 3 46 6
l22 6 0 -255 c0 -165 4 -258 10 -262 7 -5 10 78 8 259 -3 231 -1 266 12 266 8
0 25 3 37 6 l23 6 3 -268 2 -269 3 271 2 271 56 16 c32 9 61 14 65 11 5 -3 9
-2 9 3 0 8 116 58 135 58 6 0 12 3 15 6 3 3 46 27 97 53 50 26 127 72 172 102
44 29 83 54 86 54 3 0 57 51 119 113 129 127 238 270 348 455 142 238 155 265
518 1082 111 250 210 473 220 495 10 22 176 395 369 830 194 434 357 793 364
797 7 4 -261 8 -595 8 -334 0 -609 -4 -612 -8z m-2118 -4137 c9 -3 12 -50 12
-190 l0 -186 -72 3 -73 3 -3 193 -2 193 62 -6 c35 -4 69 -8 76 -10z m23 -1065
l-2 -105 115 3 c113 4 116 3 116 -18 0 -30 -37 -97 -74 -136 -35 -36 -128 -84
-163 -84 -22 0 -23 3 -23 110 0 67 -4 110 -10 110 -6 0 -10 -45 -10 -115 l0
-115 -266 0 c-209 0 -265 3 -261 13 2 6 35 100 72 207 37 107 71 205 76 218
l9 22 211 -2 212 -3 -2 -105z m117 81 c2 -6 9 -8 16 -5 16 6 85 -63 92 -93 9
-36 -4 -43 -75 -43 -49 0 -72 -4 -81 -15 -24 -29 -30 -14 -30 81 l0 97 37 -6
c21 -4 39 -11 41 -16z"/>
<path d="M23513 9273 c-129 -156 -371 -448 -429 -519 -27 -33 -112 -137 -190
-230 -130 -156 -668 -804 -734 -884 -16 -19 -42 -50 -57 -69 -15 -19 -142
-172 -282 -340 -139 -168 -270 -326 -290 -350 -20 -24 -59 -72 -87 -105 -28
-34 -142 -171 -253 -306 -112 -135 -213 -256 -225 -270 -11 -14 -149 -180
-306 -370 -156 -190 -293 -354 -303 -365 -10 -11 -32 -37 -49 -57 l-30 -38
650 0 650 0 160 193 c88 105 170 203 182 217 12 14 81 96 153 183 l130 157
794 0 794 0 -3 -57 -3 -58 -53 -1 c-46 -1 -58 -5 -85 -32 l-32 -32 83 0 82 0
0 -140 0 -141 -227 1 c-216 1 -227 1 -247 -19 l-20 -21 242 0 242 0 0 -125 0
-125 1184 0 1184 0 83 141 c46 78 91 154 99 168 8 14 25 42 36 61 12 19 115
193 229 385 114 193 233 393 265 445 91 151 310 523 398 674 45 76 141 257
214 403 73 146 134 261 135 256 1 -4 -5 -78 -15 -163 l-18 -155 -29 0 c-41 -1
-44 -23 -3 -27 26 -2 32 -7 30 -22 -2 -11 -7 -74 -10 -140 l-7 -121 -67 -3
c-52 -2 -68 -6 -68 -17 0 -12 15 -15 66 -15 l66 0 -7 -172 c-4 -95 -10 -177
-15 -181 -4 -5 -57 -7 -119 -5 -107 3 -121 0 -121 -28 0 -2 55 -4 122 -4 l121
0 -6 -127 c-4 -71 -7 -150 -7 -176 l0 -48 -169 3 c-152 3 -170 1 -180 -14 -10
-17 0 -18 165 -18 l177 0 -6 -127 c-4 -71 -7 -149 -7 -175 l0 -48 -224 0
c-190 0 -225 -2 -230 -15 -5 -13 24 -15 219 -15 l225 0 0 -52 c0 -29 -3 -110
-7 -180 l-6 -128 -273 0 c-263 0 -274 -1 -284 -20 -11 -20 -8 -20 271 -20
l281 0 -7 -160 -7 -160 363 2 363 3 44 55 c24 30 52 64 61 75 9 11 32 40 51
65 19 25 37 47 40 50 3 3 27 34 55 70 27 36 57 74 67 85 15 18 258 324 333
420 17 21 57 72 91 114 162 202 381 478 399 502 11 15 94 121 185 235 383 481
475 602 580 757 39 60 74 106 76 104 2 -2 -5 -30 -16 -63 -81 -232 -188 -617
-380 -1364 -32 -124 -76 -292 -98 -375 -79 -294 -192 -725 -192 -731 0 -2 247
-4 550 -4 l549 0 10 38 c10 42 103 427 182 752 28 118 75 314 104 435 30 121
63 261 75 310 12 50 43 180 70 291 46 188 91 374 290 1204 45 184 100 416 124
515 25 99 59 242 77 317 l33 138 335 3 c185 1 -112 3 -659 4 l-995 2 -50 -66
c-27 -36 -68 -88 -91 -117 -22 -28 -102 -131 -178 -229 -76 -98 -144 -186
-151 -195 -8 -10 -103 -132 -211 -272 -109 -140 -201 -257 -204 -260 -3 -3
-34 -43 -70 -90 -36 -47 -70 -92 -77 -100 -29 -36 -205 -264 -274 -355 -93
-122 -254 -359 -300 -440 -32 -57 -34 -58 -37 -31 -2 16 2 32 8 36 7 4 10 13
6 18 -4 6 2 82 13 169 11 87 23 195 27 240 l7 82 80 3 c53 2 82 7 85 16 3 9
-17 12 -79 12 l-82 0 6 83 c4 45 7 99 7 120 l0 38 127 -2 c86 -1 128 2 131 10
3 8 -35 11 -124 11 l-127 0 7 92 c3 50 6 106 6 125 l0 34 175 -3 c135 -2 175
0 175 10 0 9 -41 12 -170 12 l-170 0 1 53 c1 28 4 83 8 120 l6 68 219 2 c165
2 220 5 223 15 4 9 -44 12 -217 12 l-221 0 6 118 c4 64 11 121 15 125 3 4 124
6 268 5 202 -2 263 0 267 10 3 9 -54 12 -265 12 l-270 0 1 53 c1 28 4 84 8
122 5 59 9 70 24 67 10 -2 17 3 17 13 0 8 -7 15 -16 15 -14 0 -15 14 -9 120
l8 120 -664 0 -664 0 -169 -278 c-144 -236 -427 -699 -729 -1192 -42 -69 -94
-154 -115 -190 -22 -36 -70 -114 -107 -175 -37 -60 -88 -144 -113 -185 -25
-41 -105 -172 -177 -290 -73 -118 -189 -309 -260 -425 -70 -115 -146 -240
-169 -276 -22 -36 -165 -269 -316 -517 -151 -249 -278 -452 -282 -452 -5 0 -8
27 -8 60 0 53 2 60 20 60 11 0 20 5 20 10 0 6 -8 10 -17 10 -17 0 -18 13 -15
152 1 84 5 159 7 166 4 10 23 13 66 11 44 -2 63 1 70 12 20 32 10 39 -61 39
l-71 0 3 128 3 127 111 3 c106 2 112 4 118 25 3 12 6 25 6 30 0 4 -52 7 -115
7 l-116 0 3 143 3 142 162 0 163 0 10 29 c5 16 10 33 10 37 0 5 -76 9 -170 9
l-170 0 0 125 0 126 210 -3 c207 -3 220 -1 220 28 0 2 -95 4 -210 4 l-211 0 3
158 3 157 255 0 c244 0 256 1 267 20 7 11 12 23 13 28 0 4 -120 7 -266 7
l-267 0 7 293 c4 160 9 299 12 307 3 13 50 15 358 12 l354 -2 6 22 c3 13 6 26
6 31 0 4 -163 7 -361 7 l-361 0 7 298 c4 163 10 300 14 305 4 4 208 6 454 5
l446 -3 11 23 c5 13 10 27 10 32 0 6 -176 10 -461 10 l-461 0 7 293 c5 233 10
294 21 303 16 13 19 64 4 64 -6 0 -10 28 -10 65 l0 65 -749 0 -748 0 -90 -107z
m428 -960 c-14 -88 -17 -93 -41 -94 -25 -2 -25 -2 -1 -6 23 -5 23 -7 17 -65
-3 -34 -6 -81 -6 -105 l0 -45 -54 4 c-43 2 -57 -1 -65 -14 -10 -16 -6 -18 50
-18 l61 0 -7 -177 c-4 -98 -9 -182 -12 -186 -3 -4 -58 -7 -123 -6 -65 1 -123
-2 -129 -5 -31 -19 0 -26 119 -26 l130 0 0 -80 0 -80 -167 -2 c-220 -4 -222
-22 -3 -26 l161 -2 -3 -93 -3 -92 -83 0 c-45 0 -82 -2 -82 -5 0 -20 32 -30 92
-30 l69 0 -3 -72 -3 -73 -477 -3 c-263 -1 -478 0 -478 3 0 3 38 54 84 113 47
59 172 217 278 352 106 135 205 261 220 280 124 158 251 330 342 465 116 171
128 187 131 183 1 -2 -5 -45 -14 -95z"/>
<path d="M32876 9353 c-8 -16 -103 -228 -211 -473 -169 -381 -236 -532 -310
-695 -7 -16 -47 -106 -88 -200 -41 -93 -88 -199 -105 -235 -16 -36 -64 -144
-107 -240 -113 -256 -231 -521 -280 -630 -23 -52 -149 -336 -280 -630 -251
-567 -358 -808 -380 -853 l-14 -27 596 2 596 3 108 245 c60 135 126 283 148
330 21 47 148 331 281 633 134 301 246 547 249 547 4 0 145 -314 316 -697 170
-384 323 -729 341 -768 18 -38 54 -119 81 -180 l48 -110 708 -3 c390 -1 707 1
705 5 -47 98 -88 184 -198 408 -73 149 -149 306 -170 350 -21 44 -79 166 -130
270 -204 419 -274 564 -315 650 -23 50 -71 146 -105 215 l-61 125 24 20 c54
44 290 210 295 207 3 -2 9 3 14 12 5 9 13 14 18 11 4 -3 10 1 13 9 6 14 335
254 340 247 1 -3 16 9 33 25 16 16 59 50 95 75 35 25 172 124 304 219 132 95
256 185 276 199 21 14 90 64 154 111 64 47 145 105 180 130 95 68 278 200 343
247 l57 42 5 -237 5 -237 5 244 5 244 285 206 285 206 -764 3 -765 2 -35 -25
c-20 -14 -88 -66 -151 -116 -63 -50 -146 -115 -185 -144 -38 -29 -140 -108
-225 -174 -85 -67 -197 -154 -249 -194 -51 -39 -121 -94 -156 -122 -35 -27
-145 -113 -245 -190 -196 -151 -354 -274 -465 -361 -38 -31 -74 -54 -78 -52
-5 2 -12 -4 -17 -13 -11 -18 -360 -293 -365 -287 -2 2 11 37 30 78 18 41 171
381 338 755 168 374 321 715 341 759 20 43 36 80 36 82 0 2 -268 4 -595 4
l-594 0 -15 -27z"/>
<path d="M41514 9323 c-14 -32 -34 -76 -44 -98 -27 -59 -457 -1026 -572 -1285
-55 -124 -109 -245 -120 -270 -12 -25 -58 -128 -103 -230 -241 -540 -539
-1210 -555 -1245 -10 -22 -52 -116 -93 -210 -42 -93 -98 -219 -125 -280 -27
-60 -72 -161 -100 -223 l-50 -112 610 2 611 3 209 470 c606 1361 1211 2718
1388 3115 95 212 175 393 177 403 5 16 -28 17 -601 17 l-607 0 -25 -57z"/>
<path d="M49333 9242 c-62 -75 -248 -302 -415 -503 -514 -621 -912 -1100 -939
-1133 -15 -17 -147 -177 -295 -356 -148 -179 -271 -327 -274 -330 -3 -3 -25
-30 -50 -60 -25 -30 -51 -61 -58 -69 -7 -8 -37 -44 -66 -80 -29 -36 -137 -167
-240 -291 -103 -124 -200 -241 -216 -260 -57 -70 -89 -108 -362 -437 -152
-183 -280 -337 -283 -343 -4 -7 212 -10 642 -10 l648 0 205 247 c113 135 210
251 215 257 6 6 42 49 80 96 38 47 82 100 99 118 l30 32 794 0 c720 0 794 -1
788 -16 -3 -9 -6 -87 -6 -175 l0 -159 -166 0 c-129 0 -164 3 -158 13 4 6 -14
-8 -40 -33 l-47 -45 201 -3 202 -2 -4 -165 -3 -165 607 0 607 0 3 138 3 137
58 3 c56 3 57 4 57 32 0 30 -1 30 -56 30 l-56 0 7 293 c4 160 9 295 12 300 2
4 24 7 49 7 42 0 44 1 44 30 0 29 -1 30 -47 30 l-46 0 6 212 c4 116 7 251 7
300 l0 88 40 0 c39 0 40 1 40 35 0 33 -2 35 -35 35 l-35 0 0 125 0 125 38 1
37 2 -35 6 c-19 3 -35 12 -34 19 1 6 2 82 3 167 l1 155 30 0 c27 0 30 3 30 30
0 25 -4 30 -25 30 l-25 0 0 130 0 130 25 0 c18 0 25 5 25 20 0 13 -7 20 -20
20 -19 0 -20 7 -20 150 0 143 1 150 20 150 16 0 20 7 20 30 0 20 -5 30 -15 30
-13 0 -15 21 -15 130 0 117 2 130 18 130 13 0 14 2 4 9 -20 13 -17 315 3 345
18 24 20 66 4 66 -8 0 -10 50 -8 168 l4 167 -750 2 -750 2 -112 -137z m463
-887 c-4 -25 -12 -45 -17 -45 -6 0 -7 -4 -4 -10 3 -5 3 -37 -1 -70 -6 -58 -8
-60 -35 -60 -16 0 -29 -4 -29 -10 0 -5 12 -10 26 -10 l27 0 -7 -77 c-3 -42 -6
-103 -6 -135 l0 -60 -75 4 c-53 2 -76 -1 -80 -9 -3 -10 15 -13 72 -13 l76 0
-8 -187 c-4 -104 -9 -192 -12 -196 -3 -4 -69 -7 -148 -6 -79 0 -148 -2 -154
-6 -32 -19 2 -25 146 -25 l156 0 -6 -127 c-4 -71 -7 -154 -7 -186 0 -51 -3
-59 -22 -66 -20 -8 -21 -10 -5 -16 9 -4 17 -13 17 -21 0 -12 -76 -14 -475 -14
-261 0 -475 3 -475 8 0 4 17 28 38 54 20 25 73 92 117 149 44 57 123 157 175
223 53 67 126 159 162 206 37 47 97 123 133 170 37 47 76 96 86 110 44 57 169
234 249 352 47 69 87 125 89 123 2 -2 0 -25 -3 -50z"/>
<path d="M49528 7273 c34 -2 88 -2 120 0 31 2 3 3 -63 3 -66 0 -92 -1 -57 -3z"/>
<path d="M55578 9208 c-636 -1432 -974 -2187 -1063 -2373 -175 -366 -299 -550
-413 -609 l-31 -16 -4 107 -3 108 -2 -112 -2 -111 -47 -16 c-26 -9 -50 -16
-55 -16 -4 0 -8 100 -8 223 0 126 -4 228 -10 237 -6 10 -10 -67 -10 -227 l0
-243 -75 0 -75 0 0 393 c0 236 -4 398 -10 407 -6 10 -10 -124 -10 -387 0 -254
-4 -403 -10 -403 -5 0 -35 11 -67 26 -44 19 -81 49 -154 123 l-96 98 -34 -30
c-19 -17 -72 -67 -119 -111 -47 -45 -119 -112 -160 -151 -41 -38 -152 -142
-245 -231 -94 -88 -182 -171 -197 -184 -34 -29 -31 -37 70 -142 86 -90 154
-140 269 -197 81 -40 247 -96 321 -107 l42 -7 0 -193 c0 -123 4 -194 10 -194
6 0 10 70 10 191 l0 192 38 -7 c20 -3 52 -6 70 -6 l32 0 0 -190 c0 -120 -4
-190 -10 -190 -6 0 -10 -68 -10 -185 0 -185 0 -185 -22 -186 -13 0 -70 0 -128
0 l-105 0 -3 195 c-2 195 -3 196 -25 196 l-22 0 3 -188 3 -189 -100 -284 c-55
-156 -172 -488 -260 -738 -89 -249 -161 -457 -161 -461 0 -14 316 -12 328 2 5
7 26 58 45 113 117 336 182 515 187 515 6 0 43 -57 198 -296 l46 -71 95 72
c249 186 403 296 407 292 5 -5 -78 -250 -177 -520 -21 -60 -39 -110 -39 -113
0 -9 329 -4 335 5 5 10 193 538 270 761 24 69 89 253 144 409 56 156 101 285
101 287 0 2 164 4 364 4 233 0 367 4 371 10 4 6 -27 10 -84 10 l-91 0 0 153 0
153 -43 42 -43 42 -100 0 c-55 0 -104 4 -110 9 -8 9 -38 14 -144 28 -25 3 -59
11 -76 18 -17 7 -43 11 -58 8 l-26 -5 0 -229 0 -229 -120 0 -120 0 0 206 c0
184 -2 205 -16 200 -9 -3 -20 -6 -25 -6 -5 0 -9 -87 -9 -204 l0 -203 -76 -214
c-42 -118 -90 -253 -106 -301 l-31 -88 -379 0 -379 0 7 23 c3 12 51 148 105
301 l99 279 0 188 c0 161 2 189 15 189 13 0 15 27 15 185 l0 185 170 0 170 0
0 -275 c0 -177 4 -275 10 -275 6 0 10 100 10 280 l0 280 45 2 c25 1 57 2 73 2
l27 1 5 -240 6 -240 2 248 c2 202 5 247 16 247 7 0 28 3 45 6 l31 7 0 -217 c0
-137 4 -216 10 -216 6 0 10 80 10 220 0 189 2 220 15 220 22 0 274 84 324 109
24 11 47 18 52 16 4 -3 9 -1 11 3 1 4 35 25 73 47 292 160 493 364 702 711
118 196 218 403 508 1059 142 319 277 623 300 675 24 52 134 300 245 550 111
250 211 475 222 500 18 38 169 381 185 418 4 9 -118 12 -593 12 l-599 0 -77
-172z"/>
<path d="M58828 9353 c-14 -16 -96 -113 -183 -218 -86 -104 -171 -206 -187
-225 -16 -19 -42 -50 -56 -69 -24 -30 -364 -440 -416 -501 -11 -14 -52 -63
-91 -110 -38 -47 -78 -94 -87 -105 -9 -11 -119 -144 -244 -295 -287 -347 -405
-489 -685 -825 -123 -148 -244 -295 -269 -326 -25 -31 -64 -78 -87 -105 -42
-50 -429 -516 -488 -589 -18 -22 -136 -164 -262 -316 -126 -151 -233 -281
-237 -287 -5 -9 143 -12 641 -12 l648 0 247 298 c136 163 258 309 270 323 13
15 43 50 66 78 l44 51 789 0 789 0 -2 -162 -3 -163 -153 -3 c-122 -2 -152 0
-146 10 4 7 -12 -5 -35 -27 l-42 -40 187 -3 186 -2 -4 -180 -3 -180 607 0 607
0 3 148 3 147 215 0 c204 0 216 1 227 20 7 11 12 28 13 38 0 16 -17 17 -226
17 l-226 0 7 288 c4 158 9 290 12 295 2 4 130 7 284 7 216 0 279 -3 280 -12 0
-15 13 15 23 55 l6 27 -295 0 -295 0 0 125 0 125 324 0 c286 0 325 2 330 16 3
9 6 18 6 20 0 2 -146 4 -325 4 l-325 0 0 155 0 155 360 -2 c368 -3 370 -3 370
33 0 5 -148 9 -360 9 l-361 0 3 138 3 137 389 3 c387 2 405 4 406 35 0 4 -178
7 -395 7 l-396 0 3 148 3 147 424 2 c444 2 440 2 441 46 0 16 -27 17 -430 17
l-430 0 0 130 0 130 382 0 c210 0 379 2 376 5 -3 3 -173 7 -378 8 l-372 2 1
159 c1 88 4 163 7 168 3 4 133 8 290 8 156 0 284 2 284 5 0 4 -7 19 -15 35
l-16 30 -270 0 -271 0 7 293 c4 160 9 295 12 300 2 4 144 7 314 7 l309 0 10
26 c6 14 10 27 10 30 0 2 -144 4 -321 4 l-321 0 3 158 3 157 -745 3 -745 2
-26 -27z m358 -1044 c-9 -51 -16 -103 -16 -117 0 -21 -4 -24 -30 -20 -16 3
-30 1 -30 -4 0 -4 12 -8 26 -8 l26 0 -7 -127 c-4 -71 -11 -132 -15 -136 -4 -5
-38 -7 -74 -5 -61 3 -76 -2 -76 -28 0 -2 34 -4 75 -4 l75 0 0 -47 c0 -27 -3
-112 -7 -191 l-6 -143 -150 2 c-128 1 -151 -1 -159 -15 -8 -14 7 -16 147 -16
l155 0 -1 -77 c-1 -43 -4 -127 -8 -188 l-6 -110 -30 3 c-26 4 -28 2 -16 -12 7
-9 20 -16 27 -16 8 0 14 -9 14 -20 0 -20 -7 -20 -475 -20 -261 0 -475 3 -475
8 0 4 41 59 91 122 49 63 111 142 137 175 59 77 239 304 260 330 129 155 286
367 439 592 65 95 119 170 121 168 2 -2 -3 -45 -12 -96z"/>
<path d="M61657 9103 c-251 -554 -287 -636 -287 -644 0 -5 196 -9 444 -9 l445
0 4 -32 4 -33 1 33 c2 32 3 32 52 32 28 0 50 -2 50 -3 0 -2 -6 -17 -14 -33
-18 -36 -41 -88 -373 -834 -423 -948 -660 -1480 -823 -1845 -83 -187 -154
-346 -157 -352 -4 -10 119 -13 594 -13 l600 0 12 28 c7 15 114 254 238 532
124 278 233 523 243 545 10 22 64 144 120 270 56 127 213 478 347 780 135 303
272 610 305 684 114 259 103 241 143 241 l35 0 0 -49 c0 -81 14 -94 20 -18 l5
67 434 3 435 2 97 215 c54 118 109 240 123 270 98 218 132 294 162 358 19 41
34 76 34 78 0 2 -713 4 -1584 4 l-1583 0 -126 -277z"/>
<path d="M65611 9363 c-5 -10 -63 -139 -129 -288 -66 -148 -159 -358 -207
-465 -48 -107 -223 -501 -390 -875 -166 -374 -378 -849 -470 -1055 -92 -206
-203 -456 -247 -555 -44 -99 -88 -198 -98 -221 -11 -22 -67 -148 -125 -280
-59 -131 -109 -242 -112 -247 -2 -4 271 -6 608 -5 l612 3 77 175 c94 213 381
858 590 1325 10 22 147 330 305 685 158 355 404 907 546 1227 142 320 259 584
259 587 0 3 -272 6 -605 6 -565 0 -605 -1 -614 -17z"/>
<path d="M68207 9343 c-13 -21 -56 -92 -97 -158 -40 -66 -96 -158 -125 -205
-83 -136 -334 -546 -565 -925 -117 -192 -317 -519 -443 -725 -399 -652 -438
-716 -697 -1140 -140 -228 -309 -506 -377 -617 l-122 -203 578 0 579 0 30 48
c16 26 103 171 192 322 90 151 219 370 288 485 69 116 146 246 172 290 26 44
140 235 252 425 220 370 326 562 450 815 74 151 78 157 74 110 -3 -27 -11
-112 -18 -188 l-12 -139 -33 4 c-20 2 -34 -1 -37 -9 -4 -9 5 -13 30 -13 l36 0
-7 -142 c-4 -79 -9 -151 -11 -160 -4 -15 -17 -18 -70 -18 -44 0 -64 4 -65 13
0 11 -17 -20 -18 -35 -1 -5 33 -8 76 -8 l76 0 -6 -127 c-4 -71 -7 -149 -7
-175 l0 -48 -129 0 c-108 0 -130 -3 -135 -16 -3 -9 -6 -18 -6 -20 0 -2 59 -4
131 -4 l131 0 -7 -167 c-4 -93 -10 -172 -12 -176 -3 -4 -84 -7 -181 -6 -155 1
-177 -1 -180 -15 -3 -14 17 -16 179 -16 l182 0 -6 -127 c-4 -71 -7 -149 -7
-175 l0 -48 -229 0 c-191 0 -231 -2 -241 -15 -11 -13 15 -15 225 -15 l237 0
-7 -172 c-4 -95 -9 -174 -10 -176 -1 -2 -130 -4 -286 -5 l-284 -2 -3 -22 -3
-23 287 0 287 0 -7 -125 -6 -125 362 0 363 0 42 53 c159 202 260 328 291 366
20 24 46 57 57 72 31 42 118 153 125 159 3 3 87 109 187 235 99 127 290 368
424 536 134 169 293 369 353 445 60 77 142 180 181 229 94 118 244 326 285
393 18 29 34 51 37 48 3 -2 -18 -73 -45 -158 -70 -213 -148 -490 -266 -948
-19 -74 -66 -254 -104 -400 -38 -146 -95 -362 -126 -480 -31 -118 -76 -290
-100 -382 l-44 -168 554 0 c473 0 554 2 554 14 0 13 23 111 170 716 27 113 70
291 95 395 25 105 81 339 125 520 44 182 98 407 121 500 22 94 60 251 84 350
24 99 55 227 69 285 14 58 49 206 79 330 30 124 80 333 112 465 31 132 68 282
81 332 13 51 24 95 24 98 0 3 -297 5 -659 5 l-660 0 -207 -267 c-114 -148
-231 -297 -259 -333 -29 -36 -95 -119 -146 -186 -285 -368 -337 -435 -384
-494 -258 -324 -525 -691 -605 -832 -39 -71 -55 -83 -47 -37 4 19 9 62 13 97
6 58 8 62 33 63 23 2 24 2 4 6 -25 5 -27 14 -17 87 7 46 7 46 45 46 21 0 41 5
44 10 4 6 -10 10 -36 10 l-42 0 6 68 c4 37 7 79 7 95 l0 27 74 0 c41 0 78 5
81 10 4 6 -22 10 -71 10 l-77 0 6 83 c4 45 7 97 7 115 l0 32 120 0 c73 0 120
4 120 10 0 6 -45 10 -115 10 l-115 0 0 33 c0 17 7 118 15 222 8 105 15 207 15
228 l0 37 214 0 c133 0 217 4 221 10 4 7 -69 10 -211 10 l-217 0 7 92 c3 50 6
106 6 125 l0 34 260 -3 c257 -3 270 -2 270 28 0 2 -118 4 -261 4 l-262 0 6 83
c4 45 7 97 7 115 0 25 5 35 20 39 24 6 27 23 4 23 -14 0 -15 14 -9 126 4 69 8
133 9 142 1 16 -50 17 -661 20 l-663 2 -23 -37z"/>
<path d="M60517 9303 c94 -2 252 -2 350 0 98 1 21 2 -172 2 -192 1 -273 -1
-178 -2z"/>
<path d="M16570 7565 l0 -1425 -110 -220 c-60 -121 -110 -222 -110 -225 0 -3
236 -5 525 -5 l525 0 0 1650 0 1650 -415 0 -415 0 0 -1425z"/>
<path d="M69568 8253 c46 -2 118 -2 160 0 42 1 5 3 -83 3 -88 0 -123 -2 -77
-3z"/>
<path d="M68010 6633 c0 -5 44 -7 97 -5 181 5 199 8 51 10 -82 1 -148 -1 -148
-5z"/>
<path d="M67893 5863 c71 -2 183 -2 250 0 67 1 10 3 -128 3 -137 0 -192 -2
-122 -3z"/>
<path d="M51910 4909 l0 -421 -127 -166 c-70 -92 -217 -286 -327 -432 -110
-146 -223 -295 -251 -331 -275 -363 -405 -537 -405 -543 0 -3 67 -6 150 -6
l150 0 37 48 c21 26 81 107 133 180 l94 132 352 0 352 0 7 -67 c4 -38 7 -75 8
-83 2 -12 -14 -16 -78 -18 -115 -4 -121 -22 -7 -22 l92 0 1 -52 c0 -29 2 -61
4 -71 9 -48 4 -47 196 -47 l181 0 -7 95 -7 95 71 0 c44 0 71 4 71 11 0 6 -26
9 -72 8 l-73 -2 -10 87 c-6 48 -9 89 -6 92 2 2 44 4 93 4 52 0 88 4 88 10 0 6
-38 10 -93 10 l-93 0 -17 173 c-10 94 -17 180 -17 190 0 15 13 17 134 17 79 0
137 4 141 10 4 6 -44 10 -138 10 l-144 0 -6 68 c-12 125 -31 112 158 112 103
0 165 4 165 10 0 6 -63 10 -168 10 l-168 0 -19 178 c-14 131 -21 288 -25 602
l-6 425 -2 -367 -2 -368 -180 0 -180 0 0 420 0 420 -25 0 -25 0 0 -421z m103
-746 c12 -121 12 -121 -30 -125 -20 -2 -38 -8 -40 -13 -2 -6 15 -9 42 -7 l45
4 0 -33 c0 -19 3 -64 7 -101 l6 -68 -81 0 c-44 0 -84 -4 -87 -10 -4 -6 26 -10
83 -10 l88 0 10 -96 c6 -60 5 -99 -1 -105 -5 -6 -5 -9 3 -9 7 0 12 -4 12 -10
0 -6 -98 -10 -275 -10 -151 0 -275 3 -275 6 0 9 54 86 190 269 69 94 161 218
205 278 44 59 82 107 86 107 3 0 9 -30 12 -67z"/>
<path d="M22063 5163 c-10 -4 -13 -81 -13 -342 l0 -338 -111 -314 c-61 -173
-136 -384 -166 -469 -30 -85 -60 -168 -65 -185 -6 -16 -14 -33 -17 -38 -4 -4
-27 37 -50 90 -24 54 -126 282 -227 506 l-184 409 0 219 c0 188 -2 219 -15
219 -13 0 -15 -30 -15 -214 l0 -215 -37 -3 c-21 -2 -84 -2 -140 0 l-103 3 0
215 c0 207 -1 214 -20 214 -19 0 -20 -7 -20 -214 l0 -214 -41 -114 c-38 -106
-152 -427 -368 -1043 -50 -143 -96 -270 -101 -283 -6 -13 -10 -27 -10 -32 0
-6 52 -10 125 -10 112 0 125 -2 125 -17 1 -10 15 23 33 73 284 806 373 1054
378 1054 3 0 97 -204 209 -452 112 -249 225 -499 251 -555 l48 -103 130 0 c71
0 132 4 135 9 3 5 58 157 122 338 64 180 177 499 251 708 74 209 137 388 140
398 5 15 23 17 194 17 137 0 189 3 189 12 0 8 -77 10 -305 5 l-305 -6 -2 338
c-2 265 -6 337 -15 334z"/>
<path d="M19330 4712 l0 -229 -146 -414 c-242 -687 -360 -1019 -369 -1041 -7
-16 31 -17 613 -18 l620 0 35 97 c19 54 38 106 42 116 7 16 -18 17 -444 17
-248 0 -451 3 -451 8 0 7 43 131 111 320 l34 92 360 0 360 0 37 105 37 105
-360 0 c-199 0 -359 4 -357 9 2 4 32 92 68 195 l65 186 435 0 436 0 38 110 38
110 84 0 84 0 0 183 0 183 -75 37 c-42 20 -82 37 -90 37 -13 0 -15 -32 -15
-215 l0 -215 -580 0 -580 0 0 225 c0 193 -2 225 -15 225 -13 0 -15 -32 -15
-228z"/>
<path d="M23089 4492 c-10 -2 -30 -45 -56 -120 -23 -64 -64 -180 -91 -257 -27
-77 -82 -232 -121 -345 -124 -354 -151 -412 -222 -478 -29 -27 -103 -62 -131
-62 -4 0 -8 56 -8 124 0 73 -4 127 -10 131 -6 4 -10 -41 -10 -128 l0 -134 -85
-7 c-47 -3 -123 -3 -169 0 -78 6 -85 5 -95 -14 -21 -39 -72 -185 -66 -190 3
-3 24 -8 48 -12 25 -3 41 -11 39 -18 -1 -7 5 -12 13 -12 8 0 15 5 15 10 0 6
58 10 155 10 97 0 155 -4 155 -10 0 -5 5 -10 10 -10 6 0 10 7 10 15 0 10 10
15 28 15 15 0 60 9 101 20 120 34 231 98 303 175 49 51 146 247 197 395 21 63
100 288 175 498 75 211 136 386 136 388 0 2 85 4 189 4 130 0 192 4 197 11 5
8 -86 10 -342 8 -192 -2 -356 -5 -365 -7z"/>
<path d="M24132 4410 c-33 -47 -173 -232 -309 -412 -696 -916 -743 -979 -743
-984 0 -2 69 -4 154 -4 l154 0 74 101 c40 55 98 135 129 177 l55 77 355 0 354
0 3 -52 3 -53 -49 0 c-32 0 -54 -5 -62 -15 -11 -13 -4 -15 54 -15 l66 0 0 -55
0 -55 -119 0 c-69 0 -122 -4 -126 -10 -4 -6 40 -10 124 -10 l130 0 3 -42 3
-43 183 -3 c156 -2 183 0 188 13 5 11 21 15 61 15 36 0 52 4 48 11 -4 6 -30 9
-59 8 l-51 -3 -6 59 c-8 68 -10 97 -39 390 -11 116 -23 238 -26 273 l-6 62
146 0 c91 0 146 4 146 10 0 6 -56 10 -149 10 l-148 0 -6 68 c-4 37 -7 79 -7
94 l0 28 168 3 167 3 -171 2 -171 2 -6 68 c-4 37 -7 79 -7 95 l0 27 190 0
c125 0 190 4 190 10 0 7 -64 10 -194 8 l-194 -3 -6 91 c-4 50 -10 102 -14 115
l-7 24 -206 0 -205 0 -62 -85z m156 -210 c-3 -16 -1 -30 4 -30 4 0 8 -20 8
-45 0 -41 -2 -45 -24 -45 -14 0 -28 -4 -31 -10 -4 -6 8 -10 29 -10 31 0 36 -3
36 -23 0 -13 3 -58 6 -100 l7 -77 -71 0 c-40 0 -74 -5 -77 -11 -5 -7 17 -10
73 -7 l79 3 7 -93 c4 -51 9 -112 13 -137 l6 -45 -277 0 c-152 0 -276 2 -276 5
0 3 54 78 120 168 66 89 166 225 222 302 99 136 137 185 146 185 2 0 2 -13 0
-30z"/>
<path d="M25448 4337 c-135 -390 -427 -1213 -465 -1314 -4 -10 25 -13 125 -13
l130 0 10 28 c11 26 56 154 326 917 73 209 137 378 142 375 11 -7 14 -50 3
-50 -12 0 -12 -27 0 -32 5 -1 12 -72 16 -155 l7 -153 -41 0 c-34 0 -41 -3 -41
-20 0 -17 7 -20 43 -20 l44 0 6 -122 c4 -66 7 -138 7 -160 l0 -38 -75 0 c-61
0 -75 -3 -75 -16 0 -13 13 -15 78 -13 l77 2 6 -94 c4 -52 7 -124 8 -161 l1
-67 -112 -3 c-104 -3 -113 -5 -116 -23 -3 -19 2 -20 117 -17 l120 3 3 -88 3
-88 90 -3 90 -2 130 175 c72 97 218 294 325 438 107 145 273 368 368 496 95
128 175 231 178 229 2 -3 -21 -77 -52 -164 -31 -87 -71 -202 -89 -254 -18 -52
-58 -167 -90 -255 -31 -88 -94 -266 -140 -395 -46 -129 -87 -243 -90 -252 -6
-16 7 -17 161 -15 136 2 168 5 175 17 5 8 37 98 73 200 57 162 430 1222 444
1259 4 9 1 12 -6 7 -14 -9 -460 -8 -514 1 -26 4 -38 2 -38 -7 0 -6 -19 -37
-43 -68 -24 -32 -73 -97 -109 -147 -35 -49 -131 -182 -213 -295 -81 -113 -180
-249 -219 -302 -39 -54 -84 -115 -99 -138 -16 -22 -33 -40 -38 -40 -5 0 -9 22
-9 49 0 40 3 50 20 54 11 3 20 12 20 20 0 10 -7 13 -19 10 -10 -3 -21 -1 -24
4 -3 4 -8 74 -12 156 l-7 147 86 0 c51 0 86 4 86 10 0 6 -37 10 -90 10 l-90 0
0 38 c0 20 -3 88 -7 150 l-6 112 151 0 c95 0 152 4 152 10 0 6 -58 10 -154 10
l-153 0 -6 106 c-2 58 -7 106 -8 107 -2 1 -116 0 -252 -3 -136 -3 -251 -2
-255 2 -4 4 -32 -66 -64 -155z"/>
<path d="M27786 4455 c-8 -22 -24 -67 -36 -100 -12 -33 -50 -141 -85 -240 -35
-99 -136 -384 -224 -634 -89 -250 -161 -458 -161 -462 0 -4 77 -7 171 -6 l171
2 19 50 c10 28 84 237 164 465 81 228 189 534 241 681 52 146 94 269 94 275 0
5 -70 9 -170 9 l-170 0 -14 -40z"/>
<path d="M28533 4375 c-22 -66 -68 -196 -101 -290 -33 -93 -114 -323 -180
-510 -66 -187 -136 -385 -156 -440 -20 -55 -36 -106 -36 -113 0 -10 30 -12
131 -10 l131 3 53 150 c29 83 110 312 180 510 70 198 131 374 136 390 10 34
26 62 31 55 2 -3 33 -70 69 -150 36 -80 148 -328 249 -552 l184 -408 132 0
c116 0 133 2 139 18 4 9 94 265 202 567 107 303 221 625 254 716 32 91 59 170
59 175 0 5 -56 9 -129 9 l-129 0 -81 -230 c-45 -126 -109 -304 -141 -395 -33
-91 -78 -218 -101 -283 -23 -65 -45 -115 -49 -110 -4 4 -71 152 -150 328 -178
399 -223 499 -270 602 -21 45 -37 83 -35 85 2 2 -76 3 -173 3 l-177 0 -42
-120z"/>
<path d="M30846 4483 c-4 -11 -362 -490 -376 -503 -5 -5 -50 -65 -325 -430
-93 -124 -172 -227 -175 -230 -3 -3 -52 -68 -110 -145 -58 -77 -108 -141 -112
-143 -5 -2 -8 -8 -8 -13 0 -5 68 -9 155 -9 l154 0 42 58 c23 31 83 112 133
180 l90 122 353 0 353 0 0 -50 0 -50 -44 0 c-25 0 -48 -4 -51 -10 -4 -6 14
-10 48 -10 l54 0 7 -100 c4 -55 5 -104 1 -110 -4 -6 -69 -11 -168 -12 -156 -1
-153 -1 88 -10 138 -4 297 -7 355 -6 l105 3 3 27 c3 25 7 27 55 31 l52 4 -57
-1 -56 -1 -7 90 c-4 50 -9 98 -10 107 -2 10 -6 56 -10 103 l-7 85 101 0 c61 0
101 4 101 10 0 6 -42 10 -105 10 -102 0 -105 1 -105 23 0 12 -3 52 -7 90 l-6
67 122 0 c74 0 121 4 121 10 0 6 -48 10 -124 10 l-123 0 -6 68 c-12 125 -28
112 138 112 90 0 145 4 145 10 0 6 -56 10 -148 10 l-148 0 -17 183 c-10 100
-17 188 -17 195 0 9 45 12 190 12 120 0 190 4 190 10 0 6 -72 10 -195 10
l-195 0 0 24 c0 12 -3 51 -6 85 l-7 61 217 0 c137 0 216 4 216 10 0 6 -80 10
-220 10 -121 0 -220 3 -220 8 0 4 -94 7 -210 7 -155 0 -211 -3 -214 -12z m113
-340 c1 -39 -1 -43 -24 -43 -14 0 -25 -4 -25 -10 0 -5 13 -10 28 -10 l29 0 12
-142 c6 -79 14 -171 18 -205 l6 -63 -42 0 c-26 0 -40 -4 -36 -10 3 -5 24 -10
46 -10 39 0 39 0 39 -40 l0 -40 -276 0 c-217 0 -274 3 -268 13 11 17 144 200
282 387 64 85 133 180 156 210 39 53 40 54 47 30 4 -14 7 -44 8 -67z"/>
<path d="M32326 4490 c-127 -4 -161 -8 -167 -20 -9 -15 -48 -124 -289 -810
-126 -358 -211 -598 -225 -632 -7 -17 3 -18 123 -18 91 0 133 4 140 13 5 6 28
64 50 127 61 176 230 655 262 745 16 44 39 110 52 146 13 37 27 68 33 69 9 2
39 -59 124 -251 139 -312 374 -826 383 -836 7 -9 46 -13 138 -13 l127 0 51
143 c28 78 103 291 167 472 64 182 125 353 135 380 74 195 167 471 162 477 -4
3 -62 8 -129 10 l-123 3 -9 -25 c-5 -14 -18 -50 -30 -80 -11 -30 -85 -239
-165 -465 -79 -225 -149 -421 -154 -435 -10 -24 -11 -24 -32 25 -23 49 -209
462 -235 520 -17 37 -111 247 -167 373 -22 50 -46 91 -52 90 -6 -1 -83 -5
-170 -8z"/>
<path d="M34763 4492 c-6 -4 -51 -118 -98 -252 -48 -135 -136 -384 -196 -555
-61 -170 -116 -328 -124 -350 -32 -91 -104 -291 -110 -308 -7 -16 3 -17 161
-15 l168 3 22 60 c13 33 42 114 65 180 40 111 46 123 88 156 202 157 453 341
459 335 4 -4 48 -170 97 -369 l90 -362 165 -3 c90 -1 169 -1 176 2 8 3 1 43
-23 133 -32 121 -101 383 -178 682 -20 74 -32 138 -28 141 5 4 37 29 73 55
590 444 655 495 594 471 -19 -8 -315 -9 -322 -1 -2 2 -13 -5 -25 -15 -59 -51
-112 -88 -118 -84 -4 2 -9 -2 -12 -9 -3 -7 -40 -40 -83 -73 -44 -33 -126 -96
-183 -139 -57 -44 -156 -120 -221 -170 -64 -49 -155 -119 -201 -154 -46 -35
-110 -87 -141 -114 -32 -27 -58 -45 -58 -39 0 5 12 36 26 68 15 33 77 203 139
379 63 176 117 329 121 339 5 14 4 17 -5 12 -13 -8 -272 -9 -294 -1 -7 3 -17
1 -24 -3z"/>
<path d="M36527 4483 c-3 -10 -28 -83 -57 -163 -28 -80 -96 -271 -150 -425
-54 -154 -122 -345 -150 -425 -71 -199 -160 -454 -160 -457 0 -2 75 -2 166 -1
l166 3 107 300 107 300 229 0 229 0 56 -286 c31 -157 59 -293 63 -302 6 -15
26 -17 182 -17 96 0 175 2 175 5 0 6 -82 362 -115 502 -14 57 -25 109 -25 117
0 16 74 41 90 31 6 -3 10 -2 10 4 0 5 15 13 33 16 122 27 282 159 339 282 42
87 50 186 22 265 -23 64 -144 193 -195 207 -8 2 -33 8 -56 14 -33 8 -43 15
-44 31 -1 17 -2 18 -6 3 -4 -15 -14 -16 -91 -10 -48 3 -90 10 -93 16 -4 5 -45
7 -100 3 -126 -8 -679 -8 -705 0 -15 4 -23 0 -27 -13z m758 -315 c0 -84 3
-104 13 -96 8 7 12 41 12 104 0 91 1 94 23 94 13 0 47 -12 75 -26 93 -46 125
-137 82 -231 -35 -78 -100 -144 -132 -135 -5 1 -8 -2 -8 -7 0 -5 -31 -17 -69
-25 -89 -20 -641 -24 -641 -4 0 6 32 102 70 212 39 111 73 207 75 214 4 10 59
12 252 10 l248 -3 0 -107z"/>
<path d="M38270 4205 c-57 -159 -129 -364 -161 -455 -32 -91 -103 -293 -158
-450 -56 -156 -101 -285 -101 -287 0 -1 278 -2 619 -3 l618 0 37 103 c20 57
36 109 36 115 0 9 -108 12 -445 12 -285 0 -445 4 -445 10 0 8 28 90 122 352
l21 58 360 2 361 3 32 90 c18 50 33 96 33 103 1 9 -77 12 -355 12 -291 0 -355
2 -352 13 2 8 32 95 68 195 l65 182 432 0 c241 0 434 4 437 9 3 5 23 58 45
117 l39 109 -603 0 -603 0 -102 -290z"/>
<path d="M39914 4485 c-2 -5 -56 -158 -120 -340 -64 -181 -141 -400 -171 -485
-209 -590 -226 -640 -222 -645 6 -6 793 -8 809 -2 8 3 54 8 102 11 77 5 87 4
91 -11 4 -15 5 -15 6 2 1 16 14 23 69 36 37 9 92 28 122 42 30 14 62 27 69 29
8 2 21 9 30 16 9 7 52 39 96 71 200 144 361 411 382 633 l6 69 88 -3 c81 -3
88 -1 93 17 11 38 7 40 -86 40 l-93 0 -7 61 c-8 76 -56 194 -102 252 -39 48
-91 92 -148 124 -21 12 -38 25 -38 30 0 4 -6 5 -14 2 -7 -3 -20 1 -27 8 -8 7
-20 13 -26 14 -7 1 -22 2 -33 3 -13 0 -20 8 -20 21 0 11 -4 20 -10 20 -5 0
-10 -7 -10 -15 0 -12 -13 -14 -77 -8 -43 3 -80 9 -83 12 -9 11 -672 7 -676 -4z
m500 -211 c14 -5 16 -30 16 -176 0 -120 -3 -167 -11 -162 -8 4 -8 0 0 -15 14
-25 19 -26 43 -4 16 14 18 34 18 185 l0 168 33 0 c17 0 65 -10 105 -22 90 -26
149 -75 183 -150 21 -47 24 -67 23 -168 -1 -97 -5 -128 -29 -200 -49 -150
-116 -263 -207 -346 -58 -52 -172 -119 -187 -110 -5 4 -11 2 -13 -3 -1 -5 -15
-13 -30 -16 l-28 -7 -3 183 -2 184 -3 -186 -2 -186 -46 -7 c-73 -10 -454 -7
-454 3 0 15 353 1012 366 1033 6 9 205 11 228 2z"/>
<path d="M41921 4490 l-164 -5 -59 -165 c-32 -91 -110 -313 -174 -495 -64
-181 -154 -435 -200 -564 -46 -129 -84 -238 -84 -242 0 -5 76 -9 170 -11 l169
-3 15 40 c21 57 156 439 276 780 56 160 110 313 120 340 99 269 120 338 103
333 -5 -1 -82 -5 -172 -8z"/>
<path d="M42315 4455 c-8 -22 -26 -71 -40 -109 -14 -37 -25 -72 -25 -77 0 -5
109 -9 241 -9 225 0 241 -1 236 -17 -9 -31 -415 -1172 -432 -1216 -7 -16 3
-17 166 -15 l173 3 28 75 c15 41 63 176 107 300 43 124 130 369 193 545 l113
320 245 5 245 5 39 108 39 107 228 0 c125 0 230 4 233 9 4 5 -358 8 -884 8
l-890 -2 -15 -40z"/>
<path d="M44543 4375 c-68 -199 -160 -459 -347 -986 -69 -196 -126 -361 -126
-367 0 -7 107 -11 348 -11 191 -1 368 -4 394 -7 27 -4 53 -2 60 3 7 6 54 13
105 17 82 6 92 5 96 -11 4 -14 5 -13 6 5 1 22 13 26 74 25 9 0 17 4 17 8 0 4
12 10 28 14 88 22 270 134 360 223 122 120 228 294 267 437 22 83 31 278 15
346 -21 94 -76 192 -139 251 -73 67 -105 92 -122 96 -8 2 -16 7 -19 10 -3 4
-9 7 -15 8 -5 0 -31 6 -57 13 -36 10 -48 18 -48 32 0 11 -4 19 -10 19 -5 0
-10 -7 -10 -15 0 -13 -12 -14 -72 -9 -40 3 -80 8 -88 12 -8 3 -163 6 -345 6
l-330 1 -42 -120z m537 -268 c0 -141 3 -177 16 -195 l16 -23 19 25 c17 22 19
42 19 190 0 187 -7 174 83 160 l37 -7 2 -106 2 -106 3 103 4 102 27 -6 c67
-17 130 -74 163 -148 80 -181 -26 -538 -209 -708 -60 -55 -175 -123 -191 -114
-5 4 -11 1 -13 -4 -2 -6 -17 -12 -33 -13 -17 -1 -33 -6 -37 -12 -4 -6 -106
-11 -258 -13 l-250 -4 41 114 c22 62 67 187 99 278 137 390 221 624 231 641 9
17 23 19 119 19 l110 0 0 -173z"/>
<path d="M46774 4470 c-12 -14 -118 -153 -236 -310 -244 -324 -300 -398 -593
-784 -115 -153 -224 -297 -242 -321 l-32 -44 140 -3 c78 -2 143 0 145 4 3 4
10 5 17 3 7 -2 43 40 82 93 38 53 96 134 130 180 l60 82 351 0 352 0 7 -79 c4
-44 4 -85 0 -90 -3 -6 -40 -11 -85 -11 -43 0 -82 -4 -85 -10 -4 -6 28 -10 89
-10 l96 0 0 -57 c0 -111 -15 -103 197 -103 l185 0 -7 90 -7 90 71 0 c41 0 71
4 71 10 0 6 -31 10 -74 10 l-73 0 -6 68 c-12 123 -21 112 89 112 61 0 93 4 89
10 -3 6 -48 10 -98 10 l-92 0 -28 278 c-15 152 -27 283 -27 290 0 9 39 12 160
12 100 0 160 4 160 10 0 6 -61 10 -164 10 l-163 0 -6 68 c-4 37 -7 77 -7 90
l0 22 180 0 c113 0 180 4 180 10 0 6 -68 10 -184 10 l-183 0 -6 68 c-4 37 -7
79 -7 94 l0 28 208 3 207 2 -212 3 -213 2 0 43 0 42 -208 0 -208 0 -20 -25z
m116 -272 c0 -18 3 -63 7 -100 l6 -68 -42 0 c-22 0 -41 -4 -41 -10 0 -5 20
-10 43 -10 l44 0 18 -215 c10 -118 16 -217 13 -220 -3 -3 -127 -4 -276 -3
l-272 3 113 152 c61 83 170 230 241 327 71 97 133 176 138 176 4 0 8 -15 8
-32z"/>
<path d="M48072 4426 c-24 -74 -244 -697 -292 -831 -59 -162 -189 -534 -196
-559 l-6 -25 617 2 617 2 33 90 c18 50 35 100 39 113 l7 22 -451 0 c-427 0
-452 1 -445 18 6 17 16 45 98 277 l42 120 361 3 361 2 33 93 c18 50 35 98 38
105 3 9 -71 12 -352 12 -249 0 -356 3 -356 11 0 9 102 303 125 362 7 16 37 17
440 17 l433 0 17 48 c10 26 28 76 41 112 13 36 24 68 24 70 0 3 -271 5 -603 5
l-602 0 -23 -69z"/>
<path d="M49632 4465 c-14 -44 -135 -386 -252 -715 -209 -587 -257 -725 -253
-732 2 -5 76 -8 164 -8 156 0 160 0 169 23 5 12 54 148 108 302 l100 280 228
0 228 0 61 -300 60 -300 178 -3 c97 -1 177 0 177 4 0 3 -32 145 -71 316 -39
170 -69 311 -66 314 2 2 42 15 88 28 124 34 203 78 281 156 89 89 131 175 136
277 5 96 -15 154 -79 226 -85 95 -166 131 -326 143 -46 4 -83 10 -83 13 0 3
-189 6 -419 6 l-419 0 -10 -30z m759 -405 c-1 -118 -5 -217 -8 -220 -2 -3
-146 -6 -319 -8 -245 -3 -314 -1 -314 9 0 7 13 49 29 93 16 45 51 141 76 214
l48 132 246 -2 246 -3 -4 -215z m109 192 c3 -4 11 -8 18 -10 50 -10 102 -84
102 -145 0 -87 -66 -187 -148 -224 -29 -14 -55 -23 -57 -22 -2 2 -5 52 -6 112
-2 73 1 111 9 119 8 8 12 46 12 101 l0 90 32 -7 c18 -3 34 -10 38 -14z"/>
<path d="M56087 4387 c-21 -61 -60 -173 -87 -247 -27 -74 -90 -252 -140 -394
-50 -143 -105 -289 -122 -325 -41 -86 -106 -155 -165 -175 -75 -26 -72 -31
-76 117 l-3 132 -2 -136 -2 -136 -84 -6 c-46 -4 -124 -4 -172 -1 l-89 6 -39
-102 c-42 -112 -41 -120 20 -120 17 0 34 -3 37 -6 3 -4 81 -6 172 -5 111 2
165 -1 165 -8 0 -6 5 -11 10 -11 6 0 10 7 10 15 0 8 8 15 19 15 10 0 32 3 49
6 26 5 31 3 35 -17 4 -23 4 -23 6 2 1 22 7 28 34 33 49 9 164 68 226 114 97
73 164 192 261 462 28 80 61 170 72 200 11 30 49 138 85 240 35 102 86 244
111 315 l48 130 188 2 c103 1 191 4 194 7 3 3 -80 6 -184 6 -138 0 -193 -3
-202 -12 -10 -10 -15 -10 -21 1 -6 10 -17 11 -37 6 -30 -7 -214 -7 -256 0 -21
4 -26 -4 -61 -108z"/>
<path d="M57214 4453 c-16 -23 -84 -114 -152 -203 -67 -89 -177 -234 -244
-323 -67 -89 -125 -164 -128 -167 -3 -3 -17 -21 -30 -40 -13 -19 -27 -37 -30
-40 -3 -3 -51 -66 -107 -140 -55 -74 -166 -222 -247 -328 -80 -107 -146 -195
-146 -198 0 -2 69 -4 153 -4 l152 0 91 123 c50 67 110 148 133 180 l42 57 351
-2 c318 -3 351 -5 354 -20 1 -9 5 -64 9 -122 l7 -106 -120 0 c-70 0 -123 -4
-127 -10 -4 -6 40 -10 124 -10 l131 0 0 -45 0 -46 185 1 c102 1 186 5 189 8 2
4 -7 108 -20 232 -13 124 -23 240 -24 258 l0 32 124 0 c136 0 136 0 136 -63
l0 -32 117 3 c88 2 118 0 124 -10 5 -7 9 -109 9 -225 l0 -213 163 0 164 0 369
555 c203 305 372 554 375 555 7 0 19 -473 19 -747 l0 -192 -157 -3 -158 -3
-25 -72 c-13 -40 -22 -74 -20 -76 3 -3 163 -8 355 -11 l350 -7 193 288 c106
158 283 421 393 583 110 162 241 356 291 430 50 74 99 146 110 159 10 13 18
27 18 32 0 7 -114 4 -207 -6 -25 -3 -43 0 -43 5 0 6 -8 10 -18 10 -18 0 -27
-12 -268 -380 -70 -107 -211 -321 -313 -475 l-186 -280 -5 565 -5 565 -161 0
-161 0 -373 -562 c-205 -310 -375 -563 -377 -563 -1 0 -3 63 -3 141 l0 141 44
-3 c41 -4 44 -2 55 27 16 44 16 44 -39 44 l-50 0 2 173 3 172 105 0 c96 0 119
5 120 28 0 4 -49 7 -110 7 l-110 0 0 198 0 197 -180 0 -179 0 6 -447 6 -448
-126 0 -127 0 0 -25 0 -25 -128 0 -129 0 -16 178 c-10 97 -17 185 -17 195 0
15 13 17 130 17 80 0 130 4 130 10 0 6 -51 10 -133 10 l-133 0 -23 233 c-12
127 -25 248 -28 267 l-5 35 -208 0 -207 0 -29 -42z m123 -258 c-3 -20 -2 -33
2 -31 6 4 42 -346 41 -406 0 -16 -10 -18 -76 -18 -47 0 -73 -4 -69 -10 3 -5
40 -10 81 -10 l74 0 0 -29 c0 -15 3 -49 6 -75 l7 -46 -277 0 c-152 0 -276 2
-276 5 0 3 47 70 105 148 58 78 165 224 238 324 73 100 136 182 141 183 5 0 6
-16 3 -35z"/>
<path d="M61302 4488 c-9 -3 -26 -19 -37 -34 -11 -15 -70 -93 -130 -173 -61
-80 -180 -238 -265 -351 -85 -113 -157 -207 -160 -210 -3 -3 -102 -133 -219
-290 -118 -157 -236 -313 -263 -346 -26 -34 -48 -65 -48 -68 0 -3 69 -6 153
-6 l153 0 94 128 c51 70 111 151 132 180 l39 52 348 0 c392 0 361 7 361 -81
l0 -49 -59 0 c-33 0 -63 -4 -66 -10 -4 -6 19 -10 63 -10 l69 0 9 -102 9 -103
181 -3 c156 -2 183 0 194 14 10 11 10 18 3 22 -6 4 -14 46 -18 95 -6 76 -5 87
9 87 9 0 16 5 16 10 0 6 -8 10 -19 10 -15 0 -19 11 -24 68 -11 115 -10 120 21
125 25 4 25 4 -5 6 -29 1 -33 4 -33 29 0 15 -3 57 -7 95 l-6 67 37 0 c20 0 36
5 36 10 0 6 -17 10 -39 10 l-39 0 -7 73 c-4 39 -8 84 -10 99 -2 15 -6 65 -10
112 l-7 86 56 0 c31 0 56 5 56 10 0 6 -26 10 -59 10 l-58 0 -6 68 c-13 129
-17 121 61 125 l67 3 -72 2 c-72 2 -73 2 -73 30 0 15 -3 57 -7 95 l-6 67 77 0
c44 0 76 4 76 10 0 6 -33 10 -80 10 -70 0 -80 2 -80 18 0 16 -16 17 -195 17
-108 0 -204 -3 -213 -7z m97 -370 c1 -36 -1 -38 -29 -38 -20 0 -30 -5 -30 -15
0 -10 11 -15 35 -15 31 0 35 -3 35 -27 0 -16 3 -58 6 -95 l7 -67 -73 -3 c-48
-2 -75 -7 -78 -15 -3 -10 17 -13 77 -13 l81 0 0 -27 c0 -16 3 -58 7 -95 l6
-68 -28 0 c-22 0 -25 -3 -16 -14 7 -8 21 -12 31 -9 16 4 20 0 20 -21 l0 -26
-275 0 c-151 0 -275 3 -275 8 0 4 44 66 98 137 53 72 153 207 221 300 68 94
134 181 145 193 l21 24 7 -39 c4 -21 7 -55 7 -75z"/>
<path d="M63076 4393 c-22 -59 -41 -114 -44 -120 -3 -10 49 -13 238 -13 l242
0 -5 -22 c-2 -13 -78 -228 -166 -478 -89 -250 -177 -498 -196 -550 -18 -52
-40 -115 -49 -139 -9 -24 -16 -47 -16 -52 0 -5 77 -9 170 -9 94 0 170 2 170 4
0 2 32 93 71 202 39 110 95 267 124 349 106 301 233 660 240 678 7 15 28 17
250 17 l243 0 10 28 c17 43 72 203 72 209 0 3 -12 2 -26 -1 -32 -8 -1204 -8
-1254 0 l-35 6 -39 -109z"/>
<path d="M64647 4483 c-5 -17 -292 -829 -362 -1023 -63 -176 -155 -441 -155
-446 0 -2 78 -3 173 -2 l172 3 67 190 c36 105 114 325 173 490 59 165 120 338
136 385 16 47 55 157 87 245 l57 160 103 2 c57 0 106 4 110 8 4 3 -112 4 -258
0 -145 -3 -266 -8 -269 -10 -2 -3 -10 0 -16 5 -9 8 -14 5 -18 -7z"/>
<path d="M65410 4435 c-35 -95 -220 -618 -356 -1005 -68 -195 -129 -365 -134
-378 -6 -13 -10 -27 -10 -31 0 -5 56 -10 125 -10 l126 -2 13 33 c13 31 314
879 413 1163 25 72 47 132 49 134 9 10 12 -13 19 -151 l7 -148 -31 0 c-24 0
-31 -4 -31 -19 0 -15 8 -21 33 -23 l32 -3 3 -77 3 -77 -47 -3 c-26 -2 -49 -7
-51 -13 -2 -6 18 -9 52 -7 l55 4 0 -71 0 -71 -65 0 c-51 0 -65 -3 -65 -15 0
-12 14 -15 64 -15 36 0 67 -3 69 -7 3 -5 8 -76 12 -160 l7 -152 -103 -3 c-96
-3 -104 -5 -105 -23 -1 -19 4 -20 106 -17 l107 3 7 -132 c4 -73 9 -136 12
-141 3 -4 43 -8 90 -8 l84 0 147 198 c81 108 198 267 262 352 63 85 178 241
256 345 78 105 185 250 239 323 54 73 100 131 102 129 2 -2 -100 -298 -227
-658 -128 -360 -234 -662 -237 -672 -4 -16 7 -17 163 -15 l168 3 62 175 c33
96 74 211 89 255 15 44 50 141 76 215 104 288 290 821 290 828 0 4 -123 7
-272 7 l-273 0 -45 -61 c-25 -34 -76 -105 -115 -158 -38 -54 -103 -143 -144
-199 -41 -56 -104 -142 -140 -192 -35 -49 -99 -137 -141 -195 -42 -58 -90
-124 -106 -147 -16 -24 -32 -43 -35 -43 -10 0 -19 67 -19 138 l0 62 40 0 c29
0 40 4 40 15 0 11 -12 15 -45 15 l-45 0 0 38 c0 22 -3 87 -6 145 l-7 106 104
3 c137 4 133 22 -6 26 l-105 3 0 38 c0 21 -3 86 -7 144 l-6 107 166 0 c161 0
167 1 167 20 0 20 -5 21 -167 19 l-168 -1 -3 59 -3 58 -258 0 -259 0 -22 -60z"/>
<path d="M67700 4486 c0 -8 -75 -222 -232 -666 -44 -124 -90 -264 -102 -312
l-21 -87 -104 -3 c-72 -2 -106 -7 -109 -15 -3 -10 22 -13 102 -13 l106 0 0
-30 0 -30 -110 0 c-93 0 -110 -2 -110 -16 0 -13 17 -15 111 -13 l111 1 17 -50
c32 -92 98 -158 216 -212 33 -15 79 -31 103 -35 32 -5 42 -11 42 -26 0 -10 5
-19 10 -19 6 0 10 6 10 13 0 9 43 12 178 13 200 1 271 14 409 79 225 105 294
200 432 595 40 113 82 230 93 260 50 137 198 562 198 568 0 4 -58 7 -130 7
-129 0 -130 0 -139 -25 -6 -14 -84 -234 -174 -490 -181 -512 -193 -541 -237
-606 -56 -81 -111 -120 -209 -150 -75 -23 -71 -33 -71 162 0 114 -3 173 -10
169 -6 -4 -10 -75 -10 -181 l0 -174 -81 0 -80 0 3 114 c2 63 0 112 -4 109 -5
-2 -8 -51 -8 -109 0 -85 -3 -104 -15 -104 -29 0 -125 42 -134 58 -5 9 -13 15
-18 13 -4 -2 -18 16 -31 40 -41 77 -47 55 232 842 64 181 116 329 116 330 0 1
-79 2 -175 2 -96 0 -175 -4 -175 -9z"/>
<path d="M69480 4492 c-10 -2 -36 -62 -74 -170 -80 -227 -301 -852 -389 -1099
l-72 -202 -145 -4 c-80 -1 -7 -4 161 -5 236 -1 309 1 316 11 5 6 47 118 92
247 45 129 92 261 103 293 l21 57 228 0 c126 0 229 -3 229 -6 0 -9 97 -497
111 -556 l11 -48 174 0 c159 0 174 2 174 18 0 9 -31 152 -69 317 -39 165 -68
301 -66 303 4 4 124 33 145 36 8 0 21 7 29 14 7 7 19 11 27 8 7 -3 14 -2 16 2
2 4 30 24 63 46 107 69 203 195 220 289 4 20 11 37 15 37 5 0 8 20 7 45 -1 25
-5 45 -9 45 -5 0 -8 8 -8 18 0 24 -44 116 -67 139 -10 10 -28 31 -40 46 -12
15 -24 28 -27 28 -13 -1 -96 44 -96 52 0 4 -3 6 -7 4 -5 -3 -42 1 -83 9 -41 7
-96 13 -121 14 -25 0 -49 3 -53 7 -7 7 -781 12 -816 5z m738 -433 l2 -216 -46
-7 c-26 -3 -172 -6 -326 -6 -229 0 -279 2 -276 13 2 8 37 109 78 226 l75 211
245 -2 245 -3 3 -216z m93 200 c47 -16 96 -54 114 -89 27 -52 22 -57 -60 -62
-41 -2 -80 -9 -87 -16 -9 -9 6 -12 75 -12 81 0 87 -1 87 -20 0 -30 -35 -95
-76 -140 -33 -37 -117 -80 -130 -67 -4 3 -3 99 1 212 8 227 4 218 76 194z"/>
<path d="M70322 4210 c0 -19 2 -27 5 -17 2 9 2 25 0 35 -3 9 -5 1 -5 -18z"/>
<path d="M24733 4453 c59 -2 154 -2 210 0 56 1 8 3 -108 3 -115 0 -161 -2
-102 -3z"/>
<path d="M52415 4423 c173 -7 335 -7 335 0 0 4 -91 6 -202 5 -112 -1 -171 -3
-133 -5z"/>
<path d="M57753 4343 c37 -2 97 -2 135 0 37 2 6 3 -68 3 -74 0 -105 -1 -67 -3z"/>
<path d="M61833 3553 c9 -2 23 -2 30 0 6 3 -1 5 -18 5 -16 0 -22 -2 -12 -5z"/>
<path d="M40492 3020 c0 -14 2 -19 5 -12 2 6 2 18 0 25 -3 6 -5 1 -5 -13z"/>
<path d="M17615 1340 c-9 -15 7 -540 16 -540 5 0 9 -70 9 -155 0 -131 -2 -155
-15 -155 -13 0 -15 -33 -15 -240 l0 -240 26445 0 26445 0 0 670 0 670 -26439
0 c-17798 0 -26442 -3 -26446 -10z m52865 -695 l0 -155 -26410 0 -26410 0 0
155 0 155 26410 0 26410 0 0 -155z"/>
<path d="M5940 1328 c0 -10 -57 -12 -260 -10 l-260 3 0 -650 0 -651 85 0 85 0
0 290 0 290 88 0 87 0 -1 -87 -1 -88 6 80 c7 86 21 104 57 68 9 -10 19 -17 21
-15 25 19 70 -63 168 -306 l91 -227 92 -3 c53 -2 92 1 92 7 0 22 -228 541
-250 568 -14 17 -45 41 -69 54 l-45 22 59 19 c105 35 182 106 213 197 17 48
15 169 -4 223 -22 66 -78 126 -148 159 -34 16 -67 29 -73 29 -7 0 -13 9 -13
20 0 11 -4 20 -10 20 -5 0 -10 -6 -10 -12z m-72 -153 c4 -6 18 -11 32 -13 39
-4 89 -44 110 -88 27 -55 27 -153 0 -210 -25 -51 -113 -114 -161 -114 -5 0 -9
39 -9 88 0 48 -5 94 -10 102 -7 10 -10 -18 -8 -93 l3 -107 -117 0 -118 0 0
226 0 226 136 -4 c74 -2 138 -8 142 -13z"/>
<path d="M7521 1330 c-1 -13 -35 -15 -258 -12 l-258 3 0 -637 0 -637 -77 2
c-42 1 -79 -2 -82 -7 -8 -14 314 -26 492 -19 117 4 142 2 142 -9 0 -8 5 -14
10 -14 6 0 10 9 10 20 0 19 13 24 73 23 9 0 17 4 17 7 0 4 13 10 29 13 48 10
134 54 198 101 103 75 180 197 206 323 l12 58 78 -3 c48 -2 77 1 77 8 0 6 -30
10 -75 10 l-75 0 0 113 c0 141 -19 230 -69 332 -29 59 -56 96 -99 135 -74 68
-106 94 -123 98 -8 2 -16 7 -19 10 -3 4 -9 7 -15 7 -5 1 -29 7 -52 14 -38 12
-43 18 -44 45 l-2 31 -4 -28 c-4 -24 -8 -28 -26 -23 -12 3 -30 6 -39 6 -9 0
-19 10 -21 23 -2 12 -5 15 -6 7z m-148 -147 l98 -6 -2 -139 c0 -77 2 -142 5
-145 3 -4 6 57 6 135 0 112 3 142 13 142 8 0 40 -9 73 -20 71 -25 153 -79 189
-126 153 -200 135 -560 -37 -725 -51 -48 -135 -96 -179 -101 -13 -2 -26 -6
-29 -10 -3 -4 -31 -10 -63 -14 l-57 -7 0 97 c0 53 -1 96 -3 96 -2 0 -48 -44
-103 -97 l-99 -98 -3 500 c-1 275 0 506 3 513 5 14 44 15 188 5z"/>
<path d="M5119 1322 l-96 -3 -64 -67 c-36 -37 -157 -165 -269 -285 l-205 -219
-3 286 -2 286 -90 0 -90 0 2 -647 3 -648 88 -3 87 -3 0 323 1 323 31 -35 c17
-19 47 -53 67 -75 148 -165 229 -255 255 -283 26 -28 28 -34 16 -42 -12 -8
-11 -10 5 -8 14 2 47 -27 113 -99 l94 -103 111 0 110 0 -24 27 c-13 15 -28 32
-34 38 -5 7 -51 56 -101 111 -98 107 -413 453 -450 494 l-23 25 71 75 c39 41
169 177 290 302 120 124 215 228 211 230 -4 2 -51 2 -104 0z"/>
<path d="M810 850 l0 -470 -106 0 c-67 0 -103 -4 -99 -10 3 -6 49 -10 102 -10
l95 0 -7 -37 c-12 -66 -46 -118 -94 -143 -31 -16 -39 -5 -44 60 -3 55 -3 54
-5 -12 l-2 -68 -50 0 c-27 0 -50 3 -50 8 0 4 -14 7 -30 8 l-31 1 3 -76 3 -76
33 -3 c17 -2 32 -6 32 -10 0 -4 38 -7 85 -7 47 0 85 3 85 6 0 4 14 9 32 13 90
18 163 93 200 205 22 64 22 81 26 579 l3 512 -90 0 -91 0 0 -470z"/>
<path d="M1676 1287 c-7 -19 -69 -173 -137 -343 -67 -170 -177 -446 -245 -614
l-123 -305 81 -3 c57 -2 85 1 93 10 7 7 39 84 71 171 l58 157 314 -2 314 -3
28 -70 c15 -38 44 -114 64 -167 l38 -98 94 0 94 0 -14 34 c-8 18 -48 121 -90
227 -41 107 -149 383 -240 614 l-164 420 -111 3 -110 3 -15 -34z m162 -217
c17 -47 71 -192 121 -324 50 -131 91 -240 91 -242 0 -2 -117 -4 -259 -4 l-259
0 43 112 c24 62 78 201 120 308 42 107 81 208 87 223 13 36 18 30 56 -73z"/>
<path d="M2570 670 l0 -651 78 3 77 3 2 528 c1 290 6 533 9 539 4 7 2 8 -4 4
-9 -5 -12 14 -11 71 l0 78 23 -80 c13 -44 50 -150 83 -235 81 -208 299 -770
328 -845 l23 -60 79 -3 79 -3 57 143 c31 79 122 310 203 513 81 204 161 413
178 466 l31 97 -3 -609 -3 -609 85 0 86 0 0 650 0 651 -136 -3 -136 -3 -194
-490 c-185 -465 -214 -547 -230 -640 l-7 -40 -9 45 c-15 80 -29 121 -111 335
-195 510 -250 655 -275 723 l-27 72 -137 0 -138 0 0 -650z"/>
<path d="M6500 670 l0 -650 85 0 85 0 0 650 0 650 -85 0 -85 0 0 -650z"/>
<path d="M6850 1308 c0 -5 33 -7 73 -7 76 2 68 6 -21 11 -28 2 -52 0 -52 -4z"/>
<path d="M8666 1312 c-2 -4 -118 -291 -256 -637 -138 -347 -254 -636 -257
-643 -4 -9 17 -12 84 -12 l90 0 63 170 63 170 315 -2 315 -3 62 -165 62 -165
93 -3 92 -3 -6 25 c-3 14 -40 110 -80 213 -95 240 -401 1022 -409 1046 -6 15
-21 17 -116 17 -60 0 -112 -3 -115 -8z m127 -174 c3 -17 176 -477 232 -620 7
-17 -9 -18 -255 -18 -206 0 -261 3 -257 13 11 27 147 371 201 510 32 81 61
145 66 142 4 -2 10 -15 13 -27z"/>
<path d="M10260 863 c0 -504 -6 -564 -56 -630 -33 -44 -95 -72 -156 -73 l-48
0 -2 133 -2 132 -3 -129 -4 -128 -25 6 -25 7 3 -78 c3 -69 5 -78 23 -81 11 -2
27 -6 35 -9 24 -8 180 -9 183 0 1 4 17 8 35 10 17 1 32 5 32 9 0 4 9 9 19 13
32 10 92 77 116 130 13 28 29 79 36 115 6 36 13 71 15 78 3 10 23 13 79 10 74
-3 85 1 85 33 0 5 -36 9 -80 9 l-80 0 0 450 0 450 -90 0 -90 0 0 -457z"/>
<path d="M10880 679 c-140 -352 -257 -645 -258 -650 -3 -6 31 -9 84 -7 l88 3
38 100 c21 55 50 130 64 168 l26 67 315 -2 315 -3 61 -165 62 -165 93 -3 c56
-2 92 1 92 7 0 6 -56 151 -123 323 -68 172 -181 460 -252 641 l-128 327 -111
0 -111 0 -255 -641z m471 216 c56 -149 112 -298 125 -332 l23 -63 -261 0
c-204 0 -259 3 -255 13 2 6 57 147 122 312 64 165 121 311 126 324 5 13 11 22
14 20 2 -3 50 -126 106 -274z"/>
<path d="M11590 1308 c0 -5 46 -7 103 -6 106 1 94 6 -31 10 -39 2 -72 0 -72
-4z"/>
<path d="M11807 1260 l6 -60 -96 0 c-55 0 -97 4 -100 10 -3 6 -4 5 -3 -2 3
-16 140 -25 389 -27 l167 -1 0 -580 0 -580 90 0 90 0 0 580 0 580 185 0 c178
0 185 1 185 20 0 17 7 20 45 20 43 0 45 -1 45 -30 0 -47 -76 -189 -131 -245
l-49 -51 2 -431 3 -432 223 -6 222 -5 0 650 0 650 -135 0 c-83 0 -135 -4 -135
-10 0 -5 -20 -10 -45 -10 -25 0 -45 5 -45 10 0 7 -160 10 -459 10 l-459 0 5
-60z"/>
<path d="M13410 670 l0 -650 81 0 81 0 -3 612 c-2 336 -2 603 0 592 8 -42 73
-228 134 -384 68 -173 110 -279 183 -470 25 -63 65 -168 90 -233 l46 -117 78
0 78 0 52 133 c29 72 94 238 145 367 51 129 123 312 160 405 37 94 77 204 90
245 l24 75 0 -46 c1 -25 -2 -49 -6 -55 -5 -5 -7 -260 -5 -566 l2 -558 85 0 85
0 0 650 0 650 -134 0 -134 0 -102 -257 c-272 -686 -309 -783 -315 -829 -11
-89 -18 -93 -31 -21 -12 63 -41 145 -159 452 -81 212 -186 488 -217 573 l-31
82 -138 0 -139 0 0 -650z"/>
<path d="M6883 83 c20 -2 54 -2 75 0 20 2 3 4 -38 4 -41 0 -58 -2 -37 -4z"/>
</g>
</svg>
